{
  "count": 37,
  "next": "https://sw-api.starnavi.io/species/?page=2",
  "previous": null,
  "results": [
    {
      "id": 10,
      "name": "Sullustan",
      "classification": "mammal",
      "designation": "sentient",
      "average_height": "180",
      "skin_colors": "pale",
      "hair_colors": "none",
      "eye_colors": "black",
      "average_lifespan": "unknown",
      "homeworld": 33,
      "language": "Sullutese",
      "people": [31],
      "films": [3],
      "created": "2014-12-18T11:26:20.103000Z",
      "edited": "2014-12-20T21:36:42.157000Z",
      "url": "https://sw-api.starnavi.io/species/10/"
    },
    {
      "id": 11,
      "name": "Neimodian",
      "classification": "unknown",
      "designation": "sentient",
      "average_height": "180",
      "skin_colors": "grey, green",
      "hair_colors": "none",
      "eye_colors": "red, pink",
      "average_lifespan": "unknown",
      "homeworld": 18,
      "language": "Neimoidia",
      "people": [33],
      "films": [4],
      "created": "2014-12-19T17:07:31.319000Z",
      "edited": "2014-12-20T21:36:42.160000Z",
      "url": "https://sw-api.starnavi.io/species/11/"
    },
    {
      "id": 12,
      "name": "Gungan",
      "classification": "amphibian",
      "designation": "sentient",
      "average_height": "190",
      "skin_colors": "brown, green",
      "hair_colors": "none",
      "eye_colors": "orange",
      "average_lifespan": "unknown",
      "homeworld": 8,
      "language": "Gungan basic",
      "people": [36, 37, 38],
      "films": [4, 5],
      "created": "2014-12-19T17:30:37.341000Z",
      "edited": "2014-12-20T21:36:42.163000Z",
      "url": "https://sw-api.starnavi.io/species/12/"
    },
    {
      "id": 13,
      "name": "Toydarian",
      "classification": "mammal",
      "designation": "sentient",
      "average_height": "120",
      "skin_colors": "blue, green, grey",
      "hair_colors": "none",
      "eye_colors": "yellow",
      "average_lifespan": "91",
      "homeworld": 34,
      "language": "Toydarian",
      "people": [40],
      "films": [4, 5],
      "created": "2014-12-19T17:48:56.893000Z",
      "edited": "2014-12-20T21:36:42.165000Z",
      "url": "https://sw-api.starnavi.io/species/13/"
    },
    {
      "id": 14,
      "name": "Dug",
      "classification": "mammal",
      "designation": "sentient",
      "average_height": "100",
      "skin_colors": "brown, purple, grey, red",
      "hair_colors": "none",
      "eye_colors": "yellow, blue",
      "average_lifespan": "unknown",
      "homeworld": 35,
      "language": "Dugese",
      "people": [41],
      "films": [4],
      "created": "2014-12-19T17:53:11.214000Z",
      "edited": "2014-12-20T21:36:42.167000Z",
      "url": "https://sw-api.starnavi.io/species/14/"
    },
    {
      "id": 15,
      "name": "Twi'lek",
      "classification": "mammals",
      "designation": "sentient",
      "average_height": "200",
      "skin_colors": "orange, yellow, blue, green, pink, purple, tan",
      "hair_colors": "none",
      "eye_colors": "blue, brown, orange, pink",
      "average_lifespan": "unknown",
      "homeworld": 37,
      "language": "Twi'leki",
      "people": [45, 46],
      "films": [3, 4, 5, 6],
      "created": "2014-12-20T09:48:02.406000Z",
      "edited": "2014-12-20T21:36:42.169000Z",
      "url": "https://sw-api.starnavi.io/species/15/"
    },
    {
      "id": 16,
      "name": "Aleena",
      "classification": "reptile",
      "designation": "sentient",
      "average_height": "80",
      "skin_colors": "blue, gray",
      "hair_colors": "none",
      "eye_colors": "unknown",
      "average_lifespan": "79",
      "homeworld": 38,
      "language": "Aleena",
      "people": [47],
      "films": [4],
      "created": "2014-12-20T09:53:16.481000Z",
      "edited": "2014-12-20T21:36:42.171000Z",
      "url": "https://sw-api.starnavi.io/species/16/"
    },
    {
      "id": 17,
      "name": "Vulptereen",
      "classification": "unknown",
      "designation": "sentient",
      "average_height": "100",
      "skin_colors": "grey",
      "hair_colors": "none",
      "eye_colors": "yellow",
      "average_lifespan": "unknown",
      "homeworld": 39,
      "language": "vulpterish",
      "people": [48],
      "films": [4],
      "created": "2014-12-20T09:57:33.128000Z",
      "edited": "2014-12-20T21:36:42.173000Z",
      "url": "https://sw-api.starnavi.io/species/17/"
    },
    {
      "id": 18,
      "name": "Xexto",
      "classification": "unknown",
      "designation": "sentient",
      "average_height": "125",
      "skin_colors": "grey, yellow, purple",
      "hair_colors": "none",
      "eye_colors": "black",
      "average_lifespan": "unknown",
      "homeworld": 40,
      "language": "Xextese",
      "people": [49],
      "films": [4],
      "created": "2014-12-20T10:02:13.915000Z",
      "edited": "2014-12-20T21:36:42.175000Z",
      "url": "https://sw-api.starnavi.io/species/18/"
    },
    {
      "id": 19,
      "name": "Toong",
      "classification": "unknown",
      "designation": "sentient",
      "average_height": "200",
      "skin_colors": "grey, green, yellow",
      "hair_colors": "none",
      "eye_colors": "orange",
      "average_lifespan": "unknown",
      "homeworld": 41,
      "language": "Tundan",
      "people": [50],
      "films": [4, 6],
      "created": "2014-12-20T10:08:36.795000Z",
      "edited": "2014-12-20T21:36:42.177000Z",
      "url": "https://sw-api.starnavi.io/species/19/"
    }
  ]
}
