{
  "count": 39,
  "next": "https://sw-api.starnavi.io/vehicles/?page=2",
  "previous": null,
  "results": [
    {
      "id": 26,
      "name": "TIE/IN interceptor",
      "model": "Twin Ion Engine Interceptor",
      "manufacturer": "Sienar Fleet Systems",
      "cost_in_credits": "unknown",
      "length": "9.6",
      "max_atmosphering_speed": "1250",
      "crew": "1",
      "passengers": "0",
      "cargo_capacity": "75",
      "consumables": "2 days",
      "vehicle_class": "starfighter",
      "pilots": [],
      "films": [3],
      "created": "2014-12-18T10:50:28.225000Z",
      "edited": "2014-12-20T21:30:21.691000Z",
      "url": "https://sw-api.starnavi.io/vehicles/26/"
    },
    {
      "id": 34,
      "name": "Multi-Troop Transport",
      "model": "Multi-Troop Transport",
      "manufacturer": "Baktoid Armor Workshop",
      "cost_in_credits": "138000",
      "length": "31",
      "max_atmosphering_speed": "35",
      "crew": "4",
      "passengers": "112",
      "cargo_capacity": "12000",
      "consumables": "unknown",
      "vehicle_class": "repulsorcraft",
      "pilots": [],
      "films": [4],
      "created": "2014-12-19T17:12:04.400000Z",
      "edited": "2014-12-20T21:30:21.700000Z",
      "url": "https://sw-api.starnavi.io/vehicles/34/"
    },
    {
      "id": 35,
      "name": "Armored Assault Tank",
      "model": "Armoured Assault Tank",
      "manufacturer": "Baktoid Armor Workshop",
      "cost_in_credits": "unknown",
      "length": "9.75",
      "max_atmosphering_speed": "55",
      "crew": "4",
      "passengers": "6",
      "cargo_capacity": "unknown",
      "consumables": "unknown",
      "vehicle_class": "repulsorcraft",
      "pilots": [],
      "films": [4],
      "created": "2014-12-19T17:13:29.799000Z",
      "edited": "2014-12-20T21:30:21.703000Z",
      "url": "https://sw-api.starnavi.io/vehicles/35/"
    },
    {
      "id": 36,
      "name": "Single Trooper Aerial Platform",
      "model": "Single Trooper Aerial Platform",
      "manufacturer": "Baktoid Armor Workshop",
      "cost_in_credits": "2500",
      "length": "2",
      "max_atmosphering_speed": "400",
      "crew": "1",
      "passengers": "0",
      "cargo_capacity": "none",
      "consumables": "none",
      "vehicle_class": "repulsorcraft",
      "pilots": [],
      "films": [4],
      "created": "2014-12-19T17:15:09.511000Z",
      "edited": "2014-12-20T21:30:21.705000Z",
      "url": "https://sw-api.starnavi.io/vehicles/36/"
    },
    {
      "id": 42,
      "name": "Sith speeder",
      "model": "FC-20 speeder bike",
      "manufacturer": "Razalon",
      "cost_in_credits": "4000",
      "length": "1.5",
      "max_atmosphering_speed": "180",
      "crew": "1",
      "passengers": "0",
      "cargo_capacity": "2",
      "consumables": "unknown",
      "vehicle_class": "speeder",
      "pilots": [44],
      "films": [4],
      "created": "2014-12-20T10:09:56.095000Z",
      "edited": "2014-12-20T21:30:21.712000Z",
      "url": "https://sw-api.starnavi.io/vehicles/42/"
    },
    {
      "id": 44,
      "name": "Zephyr-G swoop bike",
      "model": "Zephyr-G swoop bike",
      "manufacturer": "Mobquet Swoops and Speeders",
      "cost_in_credits": "5750",
      "length": "3.68",
      "max_atmosphering_speed": "350",
      "crew": "1",
      "passengers": "1",
      "cargo_capacity": "200",
      "consumables": "none",
      "vehicle_class": "repulsorcraft",
      "pilots": [11],
      "films": [5],
      "created": "2014-12-20T16:24:16.026000Z",
      "edited": "2014-12-20T21:30:21.714000Z",
      "url": "https://sw-api.starnavi.io/vehicles/44/"
    },
    {
      "id": 45,
      "name": "Koro-2 Exodrive airspeeder",
      "model": "Koro-2 Exodrive airspeeder",
      "manufacturer": "Desler Gizh Outworld Mobility Corporation",
      "cost_in_credits": "unknown",
      "length": "6.6",
      "max_atmosphering_speed": "800",
      "crew": "1",
      "passengers": "1",
      "cargo_capacity": "80",
      "consumables": "unknown",
      "vehicle_class": "airspeeder",
      "pilots": [70],
      "films": [5],
      "created": "2014-12-20T17:17:33.526000Z",
      "edited": "2014-12-20T21:30:21.716000Z",
      "url": "https://sw-api.starnavi.io/vehicles/45/"
    },
    {
      "id": 46,
      "name": "XJ-6 airspeeder",
      "model": "XJ-6 airspeeder",
      "manufacturer": "Narglatch AirTech prefabricated kit",
      "cost_in_credits": "unknown",
      "length": "6.23",
      "max_atmosphering_speed": "720",
      "crew": "1",
      "passengers": "1",
      "cargo_capacity": "unknown",
      "consumables": "unknown",
      "vehicle_class": "airspeeder",
      "pilots": [11],
      "films": [5],
      "created": "2014-12-20T17:19:19.991000Z",
      "edited": "2014-12-20T21:30:21.719000Z",
      "url": "https://sw-api.starnavi.io/vehicles/46/"
    },
    {
      "id": 50,
      "name": "LAAT/i",
      "model": "Low Altitude Assault Transport/infrantry",
      "manufacturer": "Rothana Heavy Engineering",
      "cost_in_credits": "unknown",
      "length": "17.4",
      "max_atmosphering_speed": "620",
      "crew": "6",
      "passengers": "30",
      "cargo_capacity": "170",
      "consumables": "unknown",
      "vehicle_class": "gunship",
      "pilots": [],
      "films": [5, 6],
      "created": "2014-12-20T18:01:21.014000Z",
      "edited": "2014-12-20T21:30:21.723000Z",
      "url": "https://sw-api.starnavi.io/vehicles/50/"
    },
    {
      "id": 51,
      "name": "LAAT/c",
      "model": "Low Altitude Assault Transport/carrier",
      "manufacturer": "Rothana Heavy Engineering",
      "cost_in_credits": "unknown",
      "length": "28.82",
      "max_atmosphering_speed": "620",
      "crew": "1",
      "passengers": "0",
      "cargo_capacity": "40000",
      "consumables": "unknown",
      "vehicle_class": "gunship",
      "pilots": [],
      "films": [5],
      "created": "2014-12-20T18:02:46.802000Z",
      "edited": "2014-12-20T21:30:21.725000Z",
      "url": "https://sw-api.starnavi.io/vehicles/51/"
    }
  ]
}
